{
  "project_info": {
    "project_number": "997572002320",
    "firebase_url": "https://grocico.firebaseio.com",
    "project_id": "grocico",
    "storage_bucket": "grocico.appspot.com"
  },
  "client": [
    {
      "client_info": {
        "mobilesdk_app_id": "1:997572002320:android:6712941e9618d1cf744095",
        "android_client_info": {
          "package_name": "com.grocico.grochery"
        }
      },
      "oauth_client": [
        {
          "client_id": "997572002320-2ohbrj3i4p1qg9r9ijsn9llaeahjg2qb.apps.googleusercontent.com",
          "client_type": 1,
          "android_info": {
            "package_name": "com.grocico.grochery",
            "certificate_hash": "f34f9f8ed9d300041fc2a70d4f7f91acd59b02e2"
          }
        },
        {
          "client_id": "997572002320-e8hocrqet35gnibu4oeman19kmk765h5.apps.googleusercontent.com",
          "client_type": 3
        }
      ],
      "api_key": [
        {
          "current_key": "AIzaSyDJdh1qfAhuhJbtL1aMfWDDcZ1X28QOPfs"
        }
      ],
      "services": {
        "appinvite_service": {
          "other_platform_oauth_client": [
            {
              "client_id": "997572002320-e8hocrqet35gnibu4oeman19kmk765h5.apps.googleusercontent.com",
              "client_type": 3
            }
          ]
        }
      }
    },
    {
      "client_info": {
        "mobilesdk_app_id": "1:997572002320:android:7cef4fe5915b8e63744095",
        "android_client_info": {
          "package_name": "com.grocico.grocheryadmin"
        }
      },
      "oauth_client": [
        {
          "client_id": "997572002320-a9noe144fbbur4kejfe1v8tdt204dpqk.apps.googleusercontent.com",
          "client_type": 1,
          "android_info": {
            "package_name": "com.grocico.grocheryadmin",
            "certificate_hash": "f34f9f8ed9d300041fc2a70d4f7f91acd59b02e2"
          }
        },
        {
          "client_id": "997572002320-e8hocrqet35gnibu4oeman19kmk765h5.apps.googleusercontent.com",
          "client_type": 3
        }
      ],
      "api_key": [
        {
          "current_key": "AIzaSyDJdh1qfAhuhJbtL1aMfWDDcZ1X28QOPfs"
        }
      ],
      "services": {
        "appinvite_service": {
          "other_platform_oauth_client": [
            {
              "client_id": "997572002320-e8hocrqet35gnibu4oeman19kmk765h5.apps.googleusercontent.com",
              "client_type": 3
            }
          ]
        }
      }
    }
  ],
  "configuration_version": "1"
}